Project 1
…
#Step 6: Create new variable named Division (Division criteria found in project  # file) for non-county data 
State <- mutate(State, Division = ifelse(area_name %in% c("CONNECTICUT","MAINE",
"MASSACHUSETTS", "NEW HAMPSHIRE","RHODE ISLAND","VERMONT"),"NEW ENGLAND",
ifelse(area_name %in% c("NEW JERSEY", "NEW YORK", "PENNSYLVANIA"), "MID ATLANTIC",
ifelse(area_name %in% c("ILLINOIS", "INDIANA", "MICHIGAN", "OHIO", "WISCONSIN"), "EAST NORTH CENTRAL",
ifelse(area_name %in% c("IOWA", "KANSAS", "MINNESOTA","MISSOURI", "NEBRASKA", "NORTH DAKOTA", "SOUTH DAKOTA"), "WEST NORTH CENTRAL",
ifelse(area_name %in% c("DELAWARE", "FLORIDA", "GEORGIA", "MARYLAND", "NORTH CAROLINA", "SOUTH CAROLINA", "VIRGINIA", "DISTRICT OF COLUMBIA", "WEST VIRGINIA"), "SOUTH ATLANTIC",
ifelse(area_name %in% c("ALABAMA", "KENTUCKY", "MISSISSIPPI", "TENNESSEE"), "EAST SOUTH CENTRAL",
ifelse(area_name %in% c("ARKANSAS", "LOISIANA", "OKLAHOMA", "TEXAS"), "WEST SOUTH CENTRAL",
ifelse(area_name %in% c("ARIZONA", "COLORADO", "IDAHO", "MONTANTA", "NEVADA", "NEW MEXICO", "UTAH", "WYOMING"), "MOUNTAIN",
ifelse(area_name %in% c("ALASKA", "CALIFORNIA", "HAWAII", "OREGON", "WASHINGTON"), "PACIFIC", "ERROR"))))))))))

County

# A tibble: 31,450 × 7
   area_name   STCOU Enrollment Enrollment_Number Year  Course_Year State_abbr
   <chr>       <chr> <chr>                  <dbl> <chr> <chr>       <chr>     
 1 Autauga, AL 01001 EDU010187D              6829 1987  EDU01011987 AL        
 2 Autauga, AL 01001 EDU010188D              6900 1988  EDU01011988 AL        
 3 Autauga, AL 01001 EDU010189D              6920 1989  EDU01011989 AL        
 4 Autauga, AL 01001 EDU010190D              6847 1990  EDU01011990 AL        
 5 Autauga, AL 01001 EDU010191D              7008 1991  EDU01011991 AL        
 6 Autauga, AL 01001 EDU010192D              7137 1992  EDU01011992 AL        
 7 Autauga, AL 01001 EDU010193D              7152 1993  EDU01011993 AL        
 8 Autauga, AL 01001 EDU010194D              7381 1994  EDU01011994 AL        
 9 Autauga, AL 01001 EDU010195D              7568 1995  EDU01011995 AL        
10 Autauga, AL 01001 EDU010196D              7834 1996  EDU01011996 AL        
# ℹ 31,440 more rows

State

# A tibble: 530 × 7
   area_name     STCOU Enrollment Enrollment_Number Year  Course_Year Division
   <chr>         <chr> <chr>                  <dbl> <chr> <chr>       <chr>   
 1 UNITED STATES 00000 EDU010187D          40024299 1987  EDU01011987 ERROR   
 2 UNITED STATES 00000 EDU010188D          39967624 1988  EDU01011988 ERROR   
 3 UNITED STATES 00000 EDU010189D          40317775 1989  EDU01011989 ERROR   
 4 UNITED STATES 00000 EDU010190D          40737600 1990  EDU01011990 ERROR   
 5 UNITED STATES 00000 EDU010191D          41385442 1991  EDU01011991 ERROR   
 6 UNITED STATES 00000 EDU010192D          42088151 1992  EDU01011992 ERROR   
 7 UNITED STATES 00000 EDU010193D          42724710 1993  EDU01011993 ERROR   
 8 UNITED STATES 00000 EDU010194D          43369917 1994  EDU01011994 ERROR   
 9 UNITED STATES 00000 EDU010195D          43993459 1995  EDU01011995 ERROR   
10 UNITED STATES 00000 EDU010196D          44715737 1996  EDU01011996 ERROR   
# ℹ 520 more rows
…
  States <- bind_rows(a[[2]], b[[2]])
  class(States) <- c("States", class(States))
  
  combined_data <- list(Counties, States)
  
  return(combined_data)
}

#Check to see if function works
combine_function(Data_a, Data_b)

[[1]]
# A tibble: 62,900 × 7
   area_name   STCOU Enrollment Enrollment_Number Year  Course_Year State_abbr
   <chr>       <chr> <chr>                  <dbl> <chr> <chr>       <chr>     
 1 Autauga, AL 01001 EDU010187D              6829 1987  EDU01011987 AL        
 2 Autauga, AL 01001 EDU010188D              6900 1988  EDU01011988 AL        
 3 Autauga, AL 01001 EDU010189D              6920 1989  EDU01011989 AL        
 4 Autauga, AL 01001 EDU010190D              6847 1990  EDU01011990 AL        
 5 Autauga, AL 01001 EDU010191D              7008 1991  EDU01011991 AL        
 6 Autauga, AL 01001 EDU010192D              7137 1992  EDU01011992 AL        
 7 Autauga, AL 01001 EDU010193D              7152 1993  EDU01011993 AL        
 8 Autauga, AL 01001 EDU010194D              7381 1994  EDU01011994 AL        
 9 Autauga, AL 01001 EDU010195D              7568 1995  EDU01011995 AL        
10 Autauga, AL 01001 EDU010196D              7834 1996  EDU01011996 AL        
# ℹ 62,890 more rows

[[2]]
# A tibble: 1,060 × 7
   area_name     STCOU Enrollment Enrollment_Number Year  Course_Year Division
   <chr>         <chr> <chr>                  <dbl> <chr> <chr>       <chr>   
 1 UNITED STATES 00000 EDU010187D          40024299 1987  EDU01011987 ERROR   
 2 UNITED STATES 00000 EDU010188D          39967624 1988  EDU01011988 ERROR   
 3 UNITED STATES 00000 EDU010189D          40317775 1989  EDU01011989 ERROR   
 4 UNITED STATES 00000 EDU010190D          40737600 1990  EDU01011990 ERROR   
 5 UNITED STATES 00000 EDU010191D          41385442 1991  EDU01011991 ERROR   
 6 UNITED STATES 00000 EDU010192D          42088151 1992  EDU01011992 ERROR   
 7 UNITED STATES 00000 EDU010193D          42724710 1993  EDU01011993 ERROR   
 8 UNITED STATES 00000 EDU010194D          43369917 1994  EDU01011994 ERROR   
 9 UNITED STATES 00000 EDU010195D          43993459 1995  EDU01011995 ERROR   
10 UNITED STATES 00000 EDU010196D          44715737 1996  EDU01011996 ERROR   
# ℹ 1,050 more rows
…
Putting It All Together

In the last section of this report, we will be putting all of the previous sections together to show the usage of our functions across multiple raw data sets. To start, we will run our data processing function on the two census bureau data urls we used above. Then, we will run our combination function to combine these two raw data sets to create one object that holds our non-county and county-level data sets.

urla <- "https://www4.stat.ncsu.edu/~online/datasets/EDU01a.csv"
EDU01a <- wrapper_function(urla, default_var_name = "Enrollment")

urlb <- "https://www4.stat.ncsu.edu/~online/datasets/EDU01b.csv"
EDU01b <- wrapper_function(urlb, default_var_name = "Enrollment")

EDU01 <- combine_function(EDU01a, EDU01b)
EDU01

[[1]]
# A tibble: 62,900 × 7
   area_name   STCOU Enrollment Enrollment_Number Year  Course_Year State_abbr
   <chr>       <chr> <chr>                  <dbl> <chr> <chr>       <chr>     
 1 Autauga, AL 01001 EDU010187D              6829 1987  EDU01011987 AL        
 2 Autauga, AL 01001 EDU010188D              6900 1988  EDU01011988 AL        
 3 Autauga, AL 01001 EDU010189D              6920 1989  EDU01011989 AL        
 4 Autauga, AL 01001 EDU010190D              6847 1990  EDU01011990 AL        
 5 Autauga, AL 01001 EDU010191D              7008 1991  EDU01011991 AL        
 6 Autauga, AL 01001 EDU010192D              7137 1992  EDU01011992 AL        
 7 Autauga, AL 01001 EDU010193D              7152 1993  EDU01011993 AL        
 8 Autauga, AL 01001 EDU010194D              7381 1994  EDU01011994 AL        
 9 Autauga, AL 01001 EDU010195D              7568 1995  EDU01011995 AL        
10 Autauga, AL 01001 EDU010196D              7834 1996  EDU01011996 AL        
# ℹ 62,890 more rows

[[2]]
# A tibble: 1,060 × 7
   area_name     STCOU Enrollment Enrollment_Number Year  Course_Year Division
   <chr>         <chr> <chr>                  <dbl> <chr> <chr>       <chr>   
 1 UNITED STATES 00000 EDU010187D          40024299 1987  EDU01011987 ERROR   
 2 UNITED STATES 00000 EDU010188D          39967624 1988  EDU01011988 ERROR   
 3 UNITED STATES 00000 EDU010189D          40317775 1989  EDU01011989 ERROR   
 4 UNITED STATES 00000 EDU010190D          40737600 1990  EDU01011990 ERROR   
 5 UNITED STATES 00000 EDU010191D          41385442 1991  EDU01011991 ERROR   
 6 UNITED STATES 00000 EDU010192D          42088151 1992  EDU01011992 ERROR   
 7 UNITED STATES 00000 EDU010193D          42724710 1993  EDU01011993 ERROR   
 8 UNITED STATES 00000 EDU010194D          43369917 1994  EDU01011994 ERROR   
 9 UNITED STATES 00000 EDU010195D          43993459 1995  EDU01011995 ERROR   
10 UNITED STATES 00000 EDU010196D          44715737 1996  EDU01011996 ERROR   
# ℹ 1,050 more rows
…
urld <- "https://www4.stat.ncsu.edu/~online/datasets/PST01d.csv"
PST01d <- wrapper_function(urld, default_var_name = "Enrollment")

After successfully reading in and parsing our data, we can use our combination function multiple times to get all four data sets into one, and create two final class data sets.

combine_1 <- combine_function(PST01a, PST01b)
combine_2 <- combine_function(combine_1, PST01c)
PST01     <- combine_function(combine_2, PST01d)

PST01

[[1]]
# A tibble: 125,800 × 7
   area_name   STCOU Enrollment Enrollment_Number Year  Course_Year State_abbr
   <chr>       <chr> <chr>                  <dbl> <chr> <chr>       <chr>     
 1 Autauga, AL 01001 PST015171D             25508 1987  PST01511987 AL        
 2 Autauga, AL 01001 PST015172D             27166 1988  PST01511988 AL        
 3 Autauga, AL 01001 PST015173D             28463 1989  PST01511989 AL        
 4 Autauga, AL 01001 PST015174D             29266 1990  PST01511990 AL        
 5 Autauga, AL 01001 PST015175D             29718 1991  PST01511991 AL        
 6 Autauga, AL 01001 PST015176D             29896 1992  PST01511992 AL        
 7 Autauga, AL 01001 PST015177D             30462 1993  PST01511993 AL        
 8 Autauga, AL 01001 PST015178D             30882 1994  PST01511994 AL        
 9 Autauga, AL 01001 PST015179D             32055 1995  PST01511995 AL        
10 Autauga, AL 01001 PST025181D             31985 1996  PST02511996 AL        
# ℹ 125,790 more rows

[[2]]
# A tibble: 2,120 × 7
   area_name     STCOU Enrollment Enrollment_Number Year  Course_Year Division
   <chr>         <chr> <chr>                  <dbl> <chr> <chr>       <chr>   
 1 UNITED STATES 00000 PST015171D         206827028 1987  PST01511987 ERROR   
 2 UNITED STATES 00000 PST015172D         209283904 1988  PST01511988 ERROR   
 3 UNITED STATES 00000 PST015173D         211357490 1989  PST01511989 ERROR   
 4 UNITED STATES 00000 PST015174D         213341552 1990  PST01511990 ERROR   
 5 UNITED STATES 00000 PST015175D         215465246 1991  PST01511991 ERROR   
 6 UNITED STATES 00000 PST015176D         217562728 1992  PST01511992 ERROR   
 7 UNITED STATES 00000 PST015177D         219759860 1993  PST01511993 ERROR   
 8 UNITED STATES 00000 PST015178D         222095080 1994  PST01511994 ERROR   
 9 UNITED STATES 00000 PST015179D         224567234 1995  PST01511995 ERROR   
10 UNITED STATES 00000 PST025181D         229466391 1996  PST02511996 ERROR   
# ℹ 2,110 more rows
…
